# Version 1.2

                                                                                                                                                                                                                                                                                                touch /home/coreca/app/CertServer.dll
